IS415_GAA - Take Home Exercise 2
…
vaccine_rate_st

spacetime ────

Context:`data`

261 locations `Sub_District`

12 time periods `Date`

-- data context ----------------------------------------------------------------

# A tibble: 3,132 x 3
# Groups:   Sub_District [261]
   Sub_District Date       vaccination_rate
 * <chr>        <date>                <dbl>
 1 ANCOL        2021-07-01            0.349
 2 ANCOL        2021-08-01            0.492
 3 ANCOL        2021-09-01            0.618
 4 ANCOL        2021-10-01            0.722
 5 ANCOL        2021-11-01            0.751
 6 ANCOL        2021-12-01            0.770
 7 ANCOL        2022-01-01            0.789
 8 ANCOL        2022-02-01            0.806
 9 ANCOL        2022-03-01            0.808
10 ANCOL        2022-04-01            0.811
# ... with 3,122 more rows
…
